{
	"info": {
		"_postman_id": "8fc85e93-3f43-49b2-86d4-bdac4f59144d",
		"name": "consulta-dali",
		"schema": "https://schema.getpostman.com/json/collection/v2.1.0/collection.json"
	},
	"item": [
		{
			"name": "OSB",
			"item": [
				{
					"name": "local",
					"item": [
						{
							"name": "api",
							"item": [
								{
									"name": "1. token test local",
									"event": [
										{
											"listen": "test",
											"script": {
												"exec": [
													"var res = JSON.parse(responseBody);",
													"//pm.globals.set(\"authTokenLocal\", res.access_token)",
													"pm.collectionVariables.set(\"authTokenDaliDevs\", res.access_token)",
													"console.log(res.access_token)",
													"pm.test(\"Status Correcto\", function() {",
													"    pm.response.to.be.ok;",
													"});"
												],
												"type": "text/javascript"
											}
										}
									],
									"request": {
										"auth": {
											"type": "basic",
											"basic": [
												{
													"key": "password",
													"value": "4WSbos2TY3TZqaM0qxRWsY0A83Ya",
													"type": "string"
												},
												{
													"key": "username",
													"value": "Yaritey0P8imFPEXpeWPn7uLfCIa",
													"type": "string"
												}
											]
										},
										"method": "POST",
										"header": [],
										"body": {
											"mode": "urlencoded",
											"urlencoded": [
												{
													"key": "grant_type",
													"value": "password",
													"type": "text"
												},
												{
													"key": "password",
													"value": "Atc01.",
													"type": "text"
												},
												{
													"key": "username",
													"value": "adminatc",
													"type": "text"
												}
											]
										},
										"url": {
											"raw": "https://am18co7apibus.localdomain:8243/token",
											"protocol": "https",
											"host": [
												"am18co7apibus",
												"localdomain"
											],
											"port": "8243",
											"path": [
												"token"
											]
										}
									},
									"response": []
								},
								{
									"name": "2. getEntitat-document wso2 local",
									"event": [
										{
											"listen": "test",
											"script": {
												"exec": [
													""
												],
												"type": "text/javascript"
											}
										}
									],
									"request": {
										"method": "GET",
										"header": [
											{
												"key": "Authorization",
												"value": "Bearer {{authTokenDaliDevs}}",
												"type": "text"
											},
											{
												"key": "Content-Type",
												"value": "application/json",
												"type": "text"
											}
										],
										"url": {
											"raw": "https://am18co7apibus.localdomain:8243/datalake/v1/getEntitat/PERSONES?document=00000000T",
											"protocol": "https",
											"host": [
												"am18co7apibus",
												"localdomain"
											],
											"port": "8243",
											"path": [
												"datalake",
												"v1",
												"getEntitat",
												"PERSONES"
											],
											"query": [
												{
													"key": "document",
													"value": "00000000T"
												}
											]
										}
									},
									"response": []
								},
								{
									"name": "3. getEntitat-concepte wso2 local",
									"event": [
										{
											"listen": "test",
											"script": {
												"exec": [
													"pm.test(\"Status Correcto\", function() {",
													"    pm.response.to.be.ok;",
													"});"
												],
												"type": "text/javascript"
											}
										}
									],
									"request": {
										"method": "GET",
										"header": [
											{
												"key": "Authorization",
												"value": "Bearer {{authTokenDaliDevs}}",
												"type": "text"
											}
										],
										"url": {
											"raw": "https://am18co7apibus.localdomain:8243/datalake/v1/getEntitat/DADAREFERENCIA?concepte=UNITAT_ORGANITZATIVA",
											"protocol": "https",
											"host": [
												"am18co7apibus",
												"localdomain"
											],
											"port": "8243",
											"path": [
												"datalake",
												"v1",
												"getEntitat",
												"DADAREFERENCIA"
											],
											"query": [
												{
													"key": "concepte",
													"value": "UNITAT_ORGANITZATIVA"
												}
											]
										}
									},
									"response": []
								},
								{
									"name": "4. getEntitat-ADRECES wso2 local",
									"event": [
										{
											"listen": "test",
											"script": {
												"exec": [
													"pm.test(\"Status Correcto\", function() {",
													"    pm.response.to.be.ok;",
													"});"
												],
												"type": "text/javascript"
											}
										}
									],
									"request": {
										"method": "GET",
										"header": [
											{
												"key": "Authorization",
												"value": "Bearer {{authTokenDaliDevs}}",
												"type": "text"
											}
										],
										"url": {
											"raw": "https://am18co7apibus.localdomain:8243/datalake/v1/getEntitat/ADRECES?clau=1111",
											"protocol": "https",
											"host": [
												"am18co7apibus",
												"localdomain"
											],
											"port": "8243",
											"path": [
												"datalake",
												"v1",
												"getEntitat",
												"ADRECES"
											],
											"query": [
												{
													"key": "clau",
													"value": "1111"
												}
											]
										}
									},
									"response": []
								},
								{
									"name": "6. getEntitat-DADESCONTACTE",
									"event": [
										{
											"listen": "test",
											"script": {
												"exec": [
													"pm.test(\"Status Correcto\", function() {",
													"    pm.response.to.be.ok;",
													"});"
												],
												"type": "text/javascript"
											}
										}
									],
									"request": {
										"method": "GET",
										"header": [
											{
												"key": "Authorization",
												"value": "Bearer {{authTokenDaliDevs}}",
												"type": "text"
											}
										],
										"url": {
											"raw": "https://am18co7apibus.localdomain:8243/datalake/v1/getEntitat/DADESCONTACTE",
											"protocol": "https",
											"host": [
												"am18co7apibus",
												"localdomain"
											],
											"port": "8243",
											"path": [
												"datalake",
												"v1",
												"getEntitat",
												"DADESCONTACTE"
											]
										}
									},
									"response": []
								},
								{
									"name": "7. getEntitat-RELACIONSPERSONES",
									"event": [
										{
											"listen": "test",
											"script": {
												"exec": [
													"pm.test(\"Status Correcto\", function() {",
													"    pm.response.to.be.ok;",
													"});"
												],
												"type": "text/javascript"
											}
										}
									],
									"request": {
										"method": "GET",
										"header": [
											{
												"key": "Authorization",
												"type": "text",
												"value": "Bearer {{authTokenDaliDevs}}"
											}
										],
										"url": {
											"raw": "https://am18co7apibus.localdomain:8243/datalake/v1/getEntitat/RELACIONSPERSONES",
											"protocol": "https",
											"host": [
												"am18co7apibus",
												"localdomain"
											],
											"port": "8243",
											"path": [
												"datalake",
												"v1",
												"getEntitat",
												"RELACIONSPERSONES"
											]
										}
									},
									"response": []
								},
								{
									"name": "8. getEntitat-PERSONES_ADRECES",
									"event": [
										{
											"listen": "test",
											"script": {
												"exec": [
													"pm.test(\"Status Correcto\", function() {",
													"    pm.response.to.be.ok;",
													"});"
												],
												"type": "text/javascript"
											}
										}
									],
									"request": {
										"method": "GET",
										"header": [
											{
												"key": "Authorization",
												"type": "text",
												"value": "Bearer {{authTokenDaliDevs}}"
											}
										],
										"url": {
											"raw": "https://am18co7apibus.localdomain:8243/datalake/v1/getEntitat/PERSONES_ADRECES",
											"protocol": "https",
											"host": [
												"am18co7apibus",
												"localdomain"
											],
											"port": "8243",
											"path": [
												"datalake",
												"v1",
												"getEntitat",
												"PERSONES_ADRECES"
											]
										}
									},
									"response": []
								},
								{
									"name": "9. getEntitat-REQUERIMENTS",
									"event": [
										{
											"listen": "test",
											"script": {
												"exec": [
													"pm.test(\"Status Correcto\", function() {",
													"    pm.response.to.be.ok;",
													"});"
												],
												"type": "text/javascript"
											}
										}
									],
									"request": {
										"method": "GET",
										"header": [
											{
												"key": "Authorization",
												"type": "text",
												"value": "Bearer {{authTokenDaliDevs}}"
											}
										],
										"url": {
											"raw": "https://am18co7apibus.localdomain:8243/datalake/v1/getEntitat/REQUERIMENTS",
											"protocol": "https",
											"host": [
												"am18co7apibus",
												"localdomain"
											],
											"port": "8243",
											"path": [
												"datalake",
												"v1",
												"getEntitat",
												"REQUERIMENTS"
											]
										}
									},
									"response": []
								},
								{
									"name": "10. getEntitat-TRAMITACIONS",
									"event": [
										{
											"listen": "test",
											"script": {
												"exec": [
													"pm.test(\"Status Correcto\", function() {",
													"    pm.response.to.be.ok;",
													"});"
												],
												"type": "text/javascript"
											}
										}
									],
									"request": {
										"method": "GET",
										"header": [
											{
												"key": "Authorization",
												"type": "text",
												"value": "Bearer {{authTokenDaliDevs}}"
											}
										],
										"url": {
											"raw": "https://am18co7apibus.localdomain:8243/datalake/v1/getEntitat/TRAMITACIONS",
											"protocol": "https",
											"host": [
												"am18co7apibus",
												"localdomain"
											],
											"port": "8243",
											"path": [
												"datalake",
												"v1",
												"getEntitat",
												"TRAMITACIONS"
											]
										}
									},
									"response": []
								},
								{
									"name": "11. getEntitat-ENTITATSPERSONES",
									"event": [
										{
											"listen": "test",
											"script": {
												"exec": [
													"pm.test(\"Status Correcto\", function() {",
													"    pm.response.to.be.ok;",
													"});"
												],
												"type": "text/javascript"
											}
										}
									],
									"request": {
										"method": "GET",
										"header": [
											{
												"key": "Authorization",
												"type": "text",
												"value": "Bearer {{authTokenDaliDevs}}"
											}
										],
										"url": {
											"raw": "https://am18co7apibus.localdomain:8243/datalake/v1/getEntitat/ENTITATSPERSONES",
											"protocol": "https",
											"host": [
												"am18co7apibus",
												"localdomain"
											],
											"port": "8243",
											"path": [
												"datalake",
												"v1",
												"getEntitat",
												"ENTITATSPERSONES"
											]
										}
									},
									"response": []
								},
								{
									"name": "12. getEntitat-EXPEDIENTS",
									"event": [
										{
											"listen": "test",
											"script": {
												"exec": [
													"pm.test(\"Status Correcto\", function() {",
													"    pm.response.to.be.ok;",
													"});"
												],
												"type": "text/javascript"
											}
										}
									],
									"request": {
										"method": "GET",
										"header": [
											{
												"key": "Authorization",
												"type": "text",
												"value": "Bearer {{authTokenDaliDevs}}"
											}
										],
										"url": {
											"raw": "https://am18co7apibus.localdomain:8243/datalake/v1/getEntitat/EXPEDIENTS",
											"protocol": "https",
											"host": [
												"am18co7apibus",
												"localdomain"
											],
											"port": "8243",
											"path": [
												"datalake",
												"v1",
												"getEntitat",
												"EXPEDIENTS"
											]
										}
									},
									"response": []
								},
								{
									"name": "13. postEntitatNeg-document wso2 local Copy",
									"event": [
										{
											"listen": "test",
											"script": {
												"exec": [
													""
												],
												"type": "text/javascript"
											}
										}
									],
									"request": {
										"method": "POST",
										"header": [
											{
												"key": "Authorization",
												"value": "Bearer {{authTokenDaliDevs}}",
												"type": "text"
											},
											{
												"key": "Content-Type",
												"value": "application/json",
												"type": "text"
											}
										],
										"body": {
											"mode": "raw",
											"raw": "{\n  \"entitat\" : \"PERSONES\",\n  \"filtres\" : \"document=00000000T\"\n}\n"
										},
										"url": {
											"raw": "https://am18co7apibus.localdomain:8243/datalake/v1/postEntitatNeg",
											"protocol": "https",
											"host": [
												"am18co7apibus",
												"localdomain"
											],
											"port": "8243",
											"path": [
												"datalake",
												"v1",
												"postEntitatNeg"
											]
										}
									},
									"response": []
								}
							]
						}
					]
				}
			]
		}
	],
	"variable": [
		{
			"key": "authTokenLocal",
			"value": ""
		},
		{
			"key": "authTokenDesa",
			"value": ""
		},
		{
			"key": "authTokenDaliDev",
			"value": ""
		},
		{
			"key": "authTokenDaliDevs",
			"value": ""
		}
	]
}