{
   "codiRetorn": "OK",
   "dadesEntitat": [   {
    "idPublicDeute": "0009560968511166",
	"tipusDeute": "Autoliquidacions",
	"impost": "Impost Estad. Estab. Turístics",
	"model": "950",
	"tarifa": "Resta establiments",
	"concepte": "Impost estades establiments turistics",
	"faseDeute": "Voluntaria",
	"estatDeute": "Partides obertes",
	"pressumptamentCobrat": "NO",
	"subjectePassiuNif": "00000000T",
	"subjectePassiuNom": "PERSONA DE LA PEÇA DE PROVES",
	"importTotalDeute": "2155.27",
	"importPrincipal": "1939.74",
	"recarrec": "0.00",
	"interessos": "215.53",
	"exces": "0.00",
	"costes": "0.00",
	"importCobrat": "2155.27",
	"importPendent": "0.00",
	"dataContraccio": "20160315000000",
	"dataNotificacio": "20160411000000",
	"dataIniciVoluntaria": "20160411000000",
	"dataFiVoluntaria": "20160520000000",
	"exercici": "2016",
	"periode": "Trimestre 3",
	"deuteDomiciliat": "NO",
	"compteDomiciliacio": "",
	"operacioDeute": "Ingrés",
	"dataEfectesOperacio": "20160315122956",
	"origenDeute": "Agència tributaria de Catalunya",
	"justifEntitatCollab": "",
	"codiSistemaOrigen": "2",
	"sistemaOrigen": "e-Spriu",
	"numeroExpedient": "",
	"idDeute": "010000000148",
	"idOrigen": "940000000339",
	"idDocumentUltimIngres": "060500000003",
	"idDocumentAjornament": "",
	"numFraccio": "0001",
	"idObjecteTributari": "940000000318",
	"codiTipusDeute": "1",
	"codiImpost": "1",
	"codiModel": "950",
	"codiTarifa": "6",
	"codiConcepte": "33",
	"codiFaseDeute": "1",
	"codiEstatDeute": "1",
	"codiPeriode": "21",
	"codiOperacioDeute": "31",
	"codiOrigenDeute": "21",
	"traspassatGaudi": "NO",
	"idContribuent": "1000001146",
	"idPagadorAlternatiu": "",
	"bloqueigPagamentAuto": "",
	"bloqueigInteressos": "",
	"bloqueigReclamacio": "",
	"bloqueigCompensacio": "",
	"dataTimestamp": "20160315122956",
	"tractat": ""
   }]
}   