{
   "codiRetorn": "OK",
   "dadesEntitat": [{
      "bloc": "",
      "codiComarca": "",
      "codiDistricteMunicipal": "",
      "codiLlogaret": "",
      "codiMunicipi": "",
      "codiPais": "101",
      "codiPostal": "08711",
      "codiProvincia": "8",
      "codiSistemaOrigen": "1",
      "codiTipusNumeracio": "",
      "codiTipusViaPublica": "",
      "comarca": "ANOIA",
      "complementAdreca": "",
      "coordenadaX": "",
      "coordenadaY": "",
      "dataFiHabilitacio": "",
      "dataFiValidesa": "",
      "dataIniciHabilitacio": "",
      "dataIniciValidesa": "",
      "dataTimestamp": "19010101000000",
      "districte": "",
      "escala": "",
      "estat": "",
      "fontOrigen": "DIRE",
      "habilitada": "",
      "hmFinal": "",
      "hmInicial": "",
      "idAdreca": "120160",
      "idCadastre": "",
      "idCanviAdreca": "",
      "kmFinal": "",
      "kmInicial": "",
      "lletraFinal": "",
      "lletraInicial": "",
      "llogaret": "",
      "localitzacio": "CARRER TARRAGONA , 6",
      "municipi": "",
      "nomVia": "TARRAGONA",
      "numFinal": "",
      "numInicial": "6",
      "pais": "Espanya",
      "parcelaCadastral": "",
      "planta": "",
      "porta": "",
      "provincia": "Barcelona",
      "sistemaOrigen": "1",
      "tipologia": "",
      "tipusNumeracio": "",
      "tipusVia": "CARRER",
      "tractat": "",
      "usuariModificacio": "CARREGAAEAT",
      "tipusNumeracioMeta": "",
	  "PersonesAdreces" : [
		{	
			"tipusIdFiscal": "NIF",
			"document": "00000000T",
			"tipusPersona": "Persona física",
			"nomComplet": "PERSONA DE LA PEÇA DE PROVES",
			"idPersBdf": "0620135941",
			"niu": "",
			"idPersSpr": "",
			"idPersGau": "14283563",
			"codiIdFiscal": "2",
			"codiTipusPersona": "2"
		}]
   }]
}
